simulation/qsim/CAN.msim.vcd
$comment
	File created using the following command:
		vcd file CAN.msim.vcd -direction
$end
$date
	Wed Oct 07 19:41:52 2020
$end
$version
	ModelSim Version 2020.1
$end
$timescale
	1ps
$end

$scope module can_top_vlg_vec_tst $end
$var reg 6 ! address_recipient [5:0] $end
$var reg 6 " address_sender [5:0] $end
$var reg 1 # clk_i $end
$var reg 1 $ command_or_data $end
$var reg 64 % data_b_i [63:0] $end
$var reg 4 & data_l_i [3:0] $end
$var reg 1 ' rst_i $end
$var reg 1 ( rx_i $end
$var reg 2 ) sign [1:0] $end
$var wire 1 * bit_count [7] $end
$var wire 1 + bit_count [6] $end
$var wire 1 , bit_count [5] $end
$var wire 1 - bit_count [4] $end
$var wire 1 . bit_count [3] $end
$var wire 1 / bit_count [2] $end
$var wire 1 0 bit_count [1] $end
$var wire 1 1 bit_count [0] $end
$var wire 1 2 bit_stuffed $end
$var wire 1 3 data_o [7] $end
$var wire 1 4 data_o [6] $end
$var wire 1 5 data_o [5] $end
$var wire 1 6 data_o [4] $end
$var wire 1 7 data_o [3] $end
$var wire 1 8 data_o [2] $end
$var wire 1 9 data_o [1] $end
$var wire 1 : data_o [0] $end
$var wire 1 ; rx_busy $end
$var wire 1 < test_bit_pol_count [3] $end
$var wire 1 = test_bit_pol_count [2] $end
$var wire 1 > test_bit_pol_count [1] $end
$var wire 1 ? test_bit_pol_count [0] $end
$var wire 1 @ test_can_state [2] $end
$var wire 1 A test_can_state [1] $end
$var wire 1 B test_can_state [0] $end
$var wire 1 C test_can_tx_state [7] $end
$var wire 1 D test_can_tx_state [6] $end
$var wire 1 E test_can_tx_state [5] $end
$var wire 1 F test_can_tx_state [4] $end
$var wire 1 G test_can_tx_state [3] $end
$var wire 1 H test_can_tx_state [2] $end
$var wire 1 I test_can_tx_state [1] $end
$var wire 1 J test_can_tx_state [0] $end
$var wire 1 K test_clk_can $end
$var wire 1 L test_last_bit $end
$var wire 1 M tx_busy $end
$var wire 1 N tx_o $end

$scope module i1 $end
$var wire 1 O gnd $end
$var wire 1 P vcc $end
$var wire 1 Q unknown $end
$var tri1 1 R devclrn $end
$var tri1 1 S devpor $end
$var tri1 1 T devoe $end
$var wire 1 U rx_i~input_o $end
$var wire 1 V command_or_data~input_o $end
$var wire 1 W address_sender[0]~input_o $end
$var wire 1 X address_sender[1]~input_o $end
$var wire 1 Y address_sender[2]~input_o $end
$var wire 1 Z address_sender[3]~input_o $end
$var wire 1 [ address_sender[4]~input_o $end
$var wire 1 \ address_sender[5]~input_o $end
$var wire 1 ] address_recipient[0]~input_o $end
$var wire 1 ^ address_recipient[1]~input_o $end
$var wire 1 _ address_recipient[2]~input_o $end
$var wire 1 ` address_recipient[3]~input_o $end
$var wire 1 a address_recipient[4]~input_o $end
$var wire 1 b address_recipient[5]~input_o $end
$var wire 1 c sign[0]~input_o $end
$var wire 1 d sign[1]~input_o $end
$var wire 1 e data_l_i[0]~input_o $end
$var wire 1 f data_l_i[1]~input_o $end
$var wire 1 g data_l_i[2]~input_o $end
$var wire 1 h data_l_i[3]~input_o $end
$var wire 1 i data_b_i[0]~input_o $end
$var wire 1 j data_b_i[1]~input_o $end
$var wire 1 k data_b_i[2]~input_o $end
$var wire 1 l data_b_i[3]~input_o $end
$var wire 1 m data_b_i[4]~input_o $end
$var wire 1 n data_b_i[5]~input_o $end
$var wire 1 o data_b_i[6]~input_o $end
$var wire 1 p data_b_i[7]~input_o $end
$var wire 1 q data_b_i[8]~input_o $end
$var wire 1 r data_b_i[9]~input_o $end
$var wire 1 s data_b_i[10]~input_o $end
$var wire 1 t data_b_i[11]~input_o $end
$var wire 1 u data_b_i[12]~input_o $end
$var wire 1 v data_b_i[13]~input_o $end
$var wire 1 w data_b_i[14]~input_o $end
$var wire 1 x data_b_i[15]~input_o $end
$var wire 1 y data_b_i[16]~input_o $end
$var wire 1 z data_b_i[17]~input_o $end
$var wire 1 { data_b_i[18]~input_o $end
$var wire 1 | data_b_i[19]~input_o $end
$var wire 1 } data_b_i[20]~input_o $end
$var wire 1 ~ data_b_i[21]~input_o $end
$var wire 1 !! data_b_i[22]~input_o $end
$var wire 1 "! data_b_i[23]~input_o $end
$var wire 1 #! data_b_i[24]~input_o $end
$var wire 1 $! data_b_i[25]~input_o $end
$var wire 1 %! data_b_i[26]~input_o $end
$var wire 1 &! data_b_i[27]~input_o $end
$var wire 1 '! data_b_i[28]~input_o $end
$var wire 1 (! data_b_i[29]~input_o $end
$var wire 1 )! data_b_i[30]~input_o $end
$var wire 1 *! data_b_i[31]~input_o $end
$var wire 1 +! data_b_i[32]~input_o $end
$var wire 1 ,! data_b_i[33]~input_o $end
$var wire 1 -! data_b_i[34]~input_o $end
$var wire 1 .! data_b_i[35]~input_o $end
$var wire 1 /! data_b_i[36]~input_o $end
$var wire 1 0! data_b_i[37]~input_o $end
$var wire 1 1! data_b_i[38]~input_o $end
$var wire 1 2! data_b_i[39]~input_o $end
$var wire 1 3! data_b_i[40]~input_o $end
$var wire 1 4! data_b_i[41]~input_o $end
$var wire 1 5! data_b_i[42]~input_o $end
$var wire 1 6! data_b_i[43]~input_o $end
$var wire 1 7! data_b_i[44]~input_o $end
$var wire 1 8! data_b_i[45]~input_o $end
$var wire 1 9! data_b_i[46]~input_o $end
$var wire 1 :! data_b_i[47]~input_o $end
$var wire 1 ;! data_b_i[48]~input_o $end
$var wire 1 <! data_b_i[49]~input_o $end
$var wire 1 =! data_b_i[50]~input_o $end
$var wire 1 >! data_b_i[51]~input_o $end
$var wire 1 ?! data_b_i[52]~input_o $end
$var wire 1 @! data_b_i[53]~input_o $end
$var wire 1 A! data_b_i[54]~input_o $end
$var wire 1 B! data_b_i[55]~input_o $end
$var wire 1 C! data_b_i[56]~input_o $end
$var wire 1 D! data_b_i[57]~input_o $end
$var wire 1 E! data_b_i[58]~input_o $end
$var wire 1 F! data_b_i[59]~input_o $end
$var wire 1 G! data_b_i[60]~input_o $end
$var wire 1 H! data_b_i[61]~input_o $end
$var wire 1 I! data_b_i[62]~input_o $end
$var wire 1 J! data_b_i[63]~input_o $end
$var wire 1 K! rx_busy~output_o $end
$var wire 1 L! tx_o~output_o $end
$var wire 1 M! tx_busy~output_o $end
$var wire 1 N! data_o[0]~output_o $end
$var wire 1 O! data_o[1]~output_o $end
$var wire 1 P! data_o[2]~output_o $end
$var wire 1 Q! data_o[3]~output_o $end
$var wire 1 R! data_o[4]~output_o $end
$var wire 1 S! data_o[5]~output_o $end
$var wire 1 T! data_o[6]~output_o $end
$var wire 1 U! data_o[7]~output_o $end
$var wire 1 V! test_clk_can~output_o $end
$var wire 1 W! test_can_state[0]~output_o $end
$var wire 1 X! test_can_state[1]~output_o $end
$var wire 1 Y! test_can_state[2]~output_o $end
$var wire 1 Z! test_can_tx_state[0]~output_o $end
$var wire 1 [! test_can_tx_state[1]~output_o $end
$var wire 1 \! test_can_tx_state[2]~output_o $end
$var wire 1 ]! test_can_tx_state[3]~output_o $end
$var wire 1 ^! test_can_tx_state[4]~output_o $end
$var wire 1 _! test_can_tx_state[5]~output_o $end
$var wire 1 `! test_can_tx_state[6]~output_o $end
$var wire 1 a! test_can_tx_state[7]~output_o $end
$var wire 1 b! bit_count[0]~output_o $end
$var wire 1 c! bit_count[1]~output_o $end
$var wire 1 d! bit_count[2]~output_o $end
$var wire 1 e! bit_count[3]~output_o $end
$var wire 1 f! bit_count[4]~output_o $end
$var wire 1 g! bit_count[5]~output_o $end
$var wire 1 h! bit_count[6]~output_o $end
$var wire 1 i! bit_count[7]~output_o $end
$var wire 1 j! test_bit_pol_count[0]~output_o $end
$var wire 1 k! test_bit_pol_count[1]~output_o $end
$var wire 1 l! test_bit_pol_count[2]~output_o $end
$var wire 1 m! test_bit_pol_count[3]~output_o $end
$var wire 1 n! bit_stuffed~output_o $end
$var wire 1 o! test_last_bit~output_o $end
$var wire 1 p! clk_i~input_o $end
$var wire 1 q! rst_i~input_o $end
$var wire 1 r! baud_rate_gen|count[0]~10_combout $end
$var wire 1 s! baud_rate_gen|count[0]~11 $end
$var wire 1 t! baud_rate_gen|count[1]~13_combout $end
$var wire 1 u! baud_rate_gen|count[1]~14 $end
$var wire 1 v! baud_rate_gen|count[2]~15_combout $end
$var wire 1 w! baud_rate_gen|count[2]~16 $end
$var wire 1 x! baud_rate_gen|count[3]~17_combout $end
$var wire 1 y! baud_rate_gen|count[3]~18 $end
$var wire 1 z! baud_rate_gen|count[4]~19_combout $end
$var wire 1 {! baud_rate_gen|count[4]~20 $end
$var wire 1 |! baud_rate_gen|count[5]~21_combout $end
$var wire 1 }! baud_rate_gen|count[5]~22 $end
$var wire 1 ~! baud_rate_gen|count[6]~23_combout $end
$var wire 1 !" baud_rate_gen|count[6]~24 $end
$var wire 1 "" baud_rate_gen|count[7]~25_combout $end
$var wire 1 #" baud_rate_gen|Equal0~1_combout $end
$var wire 1 $" baud_rate_gen|count[7]~26 $end
$var wire 1 %" baud_rate_gen|count[8]~27_combout $end
$var wire 1 &" baud_rate_gen|count[8]~28 $end
$var wire 1 '" baud_rate_gen|count[9]~29_combout $end
$var wire 1 (" baud_rate_gen|Equal0~2_combout $end
$var wire 1 )" baud_rate_gen|count[9]~12_combout $end
$var wire 1 *" baud_rate_gen|Equal0~0_combout $end
$var wire 1 +" baud_rate_gen|baud_clk_o_reg~0_combout $end
$var wire 1 ," baud_rate_gen|baud_clk_o_reg~1_combout $end
$var wire 1 -" baud_rate_gen|baud_clk_o_reg~q $end
$var wire 1 ." WideOr16~0_combout $end
$var wire 1 /" WideOr16~1_combout $end
$var wire 1 0" CAN_STATE.CAN_TX~q $end
$var wire 1 1" last_bit~0_combout $end
$var wire 1 2" last_bit~q $end
$var wire 1 3" bit_pol_count~2_combout $end
$var wire 1 4" bit_pol_count[0]~3_combout $end
$var wire 1 5" always1~0_combout $end
$var wire 1 6" bit_pol_count~4_combout $end
$var wire 1 7" bit_pol_count~5_combout $end
$var wire 1 8" Equal7~0_combout $end
$var wire 1 9" TX_STATE~41_combout $end
$var wire 1 :" TX_STATE.TX_BIT_STUFF~0_combout $end
$var wire 1 ;" TX_STATE.TX_BIT_STUFF~q $end
$var wire 1 <" count[0]~8_combout $end
$var wire 1 =" count[1]~11 $end
$var wire 1 >" count[2]~18_combout $end
$var wire 1 ?" count[3]~21 $end
$var wire 1 @" count[4]~22_combout $end
$var wire 1 A" count[4]~23 $end
$var wire 1 B" count[5]~24_combout $end
$var wire 1 C" Equal0~0_combout $end
$var wire 1 D" count[5]~25 $end
$var wire 1 E" count[6]~26_combout $end
$var wire 1 F" Equal0~1_combout $end
$var wire 1 G" Selector34~7_combout $end
$var wire 1 H" Selector38~0_combout $end
$var wire 1 I" Equal6~0_combout $end
$var wire 1 J" Equal6~1_combout $end
$var wire 1 K" Equal5~0_combout $end
$var wire 1 L" TX_STATE~53_combout $end
$var wire 1 M" NEXT_TX_STATE~42_combout $end
$var wire 1 N" Equal3~0_combout $end
$var wire 1 O" Selector34~4_combout $end
$var wire 1 P" Selector34~5_combout $end
$var wire 1 Q" Selector34~6_combout $end
$var wire 1 R" NEXT_TX_STATE.TX_MESSAGE_TYPE~q $end
$var wire 1 S" TX_STATE~42_combout $end
$var wire 1 T" TX_STATE.TX_MESSAGE_TYPE~q $end
$var wire 1 U" Selector35~0_combout $end
$var wire 1 V" NEXT_TX_STATE.TX_ADDRESS_LOCAL~q $end
$var wire 1 W" TX_STATE~62_combout $end
$var wire 1 X" TX_STATE~63_combout $end
$var wire 1 Y" TX_STATE.TX_ADDRESS_LOCAL~q $end
$var wire 1 Z" Selector29~0_combout $end
$var wire 1 [" Selector29~1_combout $end
$var wire 1 \" Selector29~2_combout $end
$var wire 1 ]" Selector29~3_combout $end
$var wire 1 ^" NEXT_TX_STATE.TX_SRR~q $end
$var wire 1 _" TX_STATE~64_combout $end
$var wire 1 `" TX_STATE~65_combout $end
$var wire 1 a" TX_STATE.TX_SRR~q $end
$var wire 1 b" Selector30~0_combout $end
$var wire 1 c" NEXT_TX_STATE.TX_IDE~q $end
$var wire 1 d" TX_STATE~66_combout $end
$var wire 1 e" TX_STATE.TX_IDE~q $end
$var wire 1 f" NEXT_TX_STATE~41_combout $end
$var wire 1 g" count[3]~7_combout $end
$var wire 1 h" count[3]~17_combout $end
$var wire 1 i" count[2]~19 $end
$var wire 1 j" count[3]~20_combout $end
$var wire 1 k" Equal1~0_combout $end
$var wire 1 l" Equal1~1_combout $end
$var wire 1 m" TX_STATE~51_combout $end
$var wire 1 n" TX_STATE~48_combout $end
$var wire 1 o" count[0]~12_combout $end
$var wire 1 p" count[0]~13_combout $end
$var wire 1 q" TX_STATE~60_combout $end
$var wire 1 r" TX_STATE~61_combout $end
$var wire 1 s" count[0]~14_combout $end
$var wire 1 t" count[0]~15_combout $end
$var wire 1 u" count[0]~16_combout $end
$var wire 1 v" count[0]~9 $end
$var wire 1 w" count[1]~10_combout $end
$var wire 1 x" Equal4~0_combout $end
$var wire 1 y" TX_STATE~57_combout $end
$var wire 1 z" Selector36~1_combout $end
$var wire 1 {" Selector36~0_combout $end
$var wire 1 |" Selector36~2_combout $end
$var wire 1 }" NEXT_TX_STATE.TX_ADDRESS_REMOTE~q $end
$var wire 1 ~" TX_STATE~58_combout $end
$var wire 1 !# TX_STATE~59_combout $end
$var wire 1 "# TX_STATE.TX_ADDRESS_REMOTE~q $end
$var wire 1 ## TX_STATE~43_combout $end
$var wire 1 $# NEXT_TX_STATE~43_combout $end
$var wire 1 %# TX_STATE~84_combout $end
$var wire 1 &# TX_STATE~49_combout $end
$var wire 1 '# TX_STATE~50_combout $end
$var wire 1 (# NEXT_TX_STATE~44_combout $end
$var wire 1 )# NEXT_TX_STATE.TX_HANDSHAKING_P~q $end
$var wire 1 *# TX_STATE~44_combout $end
$var wire 1 +# TX_STATE~45_combout $end
$var wire 1 ,# TX_STATE~46_combout $end
$var wire 1 -# TX_STATE~47_combout $end
$var wire 1 .# TX_STATE~52_combout $end
$var wire 1 /# TX_STATE~54_combout $end
$var wire 1 0# TX_STATE~55_combout $end
$var wire 1 1# TX_STATE.TX_HANDSHAKING_P~q $end
$var wire 1 2# Selector34~8_combout $end
$var wire 1 3# Selector38~1_combout $end
$var wire 1 4# Selector38~2_combout $end
$var wire 1 5# NEXT_TX_STATE.TX_ATRIBUTE_RESERVED~q $end
$var wire 1 6# TX_STATE~56_combout $end
$var wire 1 7# TX_STATE~85_combout $end
$var wire 1 8# TX_STATE.TX_ATRIBUTE_RESERVED~q $end
$var wire 1 9# Selector39~0_combout $end
$var wire 1 :# Selector39~1_combout $end
$var wire 1 ;# NEXT_TX_STATE.TX_EXPAND_COUNT~q $end
$var wire 1 <# TX_STATE~74_combout $end
$var wire 1 =# TX_STATE~86_combout $end
$var wire 1 ># TX_STATE.TX_EXPAND_COUNT~q $end
$var wire 1 ?# Selector42~0_combout $end
$var wire 1 @# Selector40~0_combout $end
$var wire 1 A# Selector40~1_combout $end
$var wire 1 B# NEXT_TX_STATE.TX_CMD_DATA_SIGN~q $end
$var wire 1 C# TX_STATE~70_combout $end
$var wire 1 D# TX_STATE~71_combout $end
$var wire 1 E# TX_STATE.TX_CMD_DATA_SIGN~q $end
$var wire 1 F# NEXT_TX_STATE.TX_RTR~q $end
$var wire 1 G# TX_STATE~67_combout $end
$var wire 1 H# TX_STATE.TX_RTR~q $end
$var wire 1 I# Selector32~0_combout $end
$var wire 1 J# NEXT_TX_STATE.TX_RESERVED~q $end
$var wire 1 K# TX_STATE~68_combout $end
$var wire 1 L# TX_STATE~69_combout $end
$var wire 1 M# TX_STATE.TX_RESERVED~q $end
$var wire 1 N# WideOr2~1_combout $end
$var wire 1 O# Selector41~0_combout $end
$var wire 1 P# Selector41~1_combout $end
$var wire 1 Q# NEXT_TX_STATE.TX_DLC~q $end
$var wire 1 R# TX_STATE~75_combout $end
$var wire 1 S# TX_STATE~76_combout $end
$var wire 1 T# TX_STATE.TX_DLC~q $end
$var wire 1 U# Selector42~1_combout $end
$var wire 1 V# Selector42~2_combout $end
$var wire 1 W# NEXT_TX_STATE.TX_DATA~q $end
$var wire 1 X# TX_STATE~72_combout $end
$var wire 1 Y# TX_STATE~73_combout $end
$var wire 1 Z# TX_STATE.TX_DATA~q $end
$var wire 1 [# NEXT_TX_STATE.TX_CRC~q $end
$var wire 1 \# TX_STATE~77_combout $end
$var wire 1 ]# TX_STATE.TX_CRC~q $end
$var wire 1 ^# TX_STATE~87_combout $end
$var wire 1 _# TX_STATE~78_combout $end
$var wire 1 `# TX_STATE~79_combout $end
$var wire 1 a# TX_STATE~80_combout $end
$var wire 1 b# TX_STATE~88_combout $end
$var wire 1 c# TX_STATE~83_combout $end
$var wire 1 d# TX_STATE.TX_CRC_DELIMITER~0_combout $end
$var wire 1 e# TX_STATE.TX_CRC_DELIMITER~q $end
$var wire 1 f# TX_STATE.TX_ACK_SLOT~q $end
$var wire 1 g# TX_STATE.TX_ACK_DELIMITER~q $end
$var wire 1 h# TX_STATE~82_combout $end
$var wire 1 i# TX_STATE.TX_END_OF_FRAME~q $end
$var wire 1 j# NEXT_TX_STATE.TX_IDLE~q $end
$var wire 1 k# TX_STATE~81_combout $end
$var wire 1 l# TX_STATE.TX_IDLE~q $end
$var wire 1 m# TX_STATE.TX_START_OF_FRAME~0_combout $end
$var wire 1 n# TX_STATE.TX_START_OF_FRAME~q $end
$var wire 1 o# tx_o~0_combout $end
$var wire 1 p# tx_o~1_combout $end
$var wire 1 q# tx_o~2_combout $end
$var wire 1 r# tx_o~3_combout $end
$var wire 1 s# tx_o~4_combout $end
$var wire 1 t# tx_o~5_combout $end
$var wire 1 u# tx_o~6_combout $end
$var wire 1 v# tx_o~7_combout $end
$var wire 1 w# Mux5~0_combout $end
$var wire 1 x# Mux5~1_combout $end
$var wire 1 y# Mux5~2_combout $end
$var wire 1 z# Mux5~3_combout $end
$var wire 1 {# tx_o~8_combout $end
$var wire 1 |# tx_o~9_combout $end
$var wire 1 }# tx_o~10_combout $end
$var wire 1 ~# tx_o~11_combout $end
$var wire 1 !$ tx_o~12_combout $end
$var wire 1 "$ WideOr0~0_combout $end
$var wire 1 #$ tx_o~13_combout $end
$var wire 1 $$ crc_reg~2_combout $end
$var wire 1 %$ WideOr16~combout $end
$var wire 1 &$ crc_reg~4_combout $end
$var wire 1 '$ crc_reg~5_combout $end
$var wire 1 ($ crc_reg~0_combout $end
$var wire 1 )$ crc_reg~1_combout $end
$var wire 1 *$ crc_reg~3_combout $end
$var wire 1 +$ crc_next~0_combout $end
$var wire 1 ,$ Mux6~0_combout $end
$var wire 1 -$ Mux6~1_combout $end
$var wire 1 .$ Mux6~2_combout $end
$var wire 1 /$ Mux6~3_combout $end
$var wire 1 0$ Mux6~4_combout $end
$var wire 1 1$ Mux6~5_combout $end
$var wire 1 2$ Mux6~6_combout $end
$var wire 1 3$ Mux6~7_combout $end
$var wire 1 4$ Mux6~8_combout $end
$var wire 1 5$ Mux6~9_combout $end
$var wire 1 6$ tx_o~14_combout $end
$var wire 1 7$ tx_o~15_combout $end
$var wire 1 8$ bit_stuff_bit~0_combout $end
$var wire 1 9$ bit_stuff_bit~q $end
$var wire 1 :$ tx_o~16_combout $end
$var wire 1 ;$ tx_o~17_combout $end
$var wire 1 <$ tx_o~18_combout $end
$var wire 1 =$ tx_o~19_combout $end
$var wire 1 >$ tx_o~20_combout $end
$var wire 1 ?$ tx_o~21_combout $end
$var wire 1 @$ tx_o~22_combout $end
$var wire 1 A$ WideOr4~0_combout $end
$var wire 1 B$ WideOr3~0_combout $end
$var wire 1 C$ WideOr4~1_combout $end
$var wire 1 D$ WideOr3~1_combout $end
$var wire 1 E$ WideOr3~2_combout $end
$var wire 1 F$ WideOr2~0_combout $end
$var wire 1 G$ WideOr2~combout $end
$var wire 1 H$ TX_STATE~40_combout $end
$var wire 1 I$ WideOr1~combout $end
$var wire 1 J$ WideOr0~1_combout $end
$var wire 1 K$ test_can_tx_state~2_combout $end
$var wire 1 L$ bit_count_reg[0]~8_combout $end
$var wire 1 M$ bit_count_reg[0]~9 $end
$var wire 1 N$ bit_count_reg[1]~10_combout $end
$var wire 1 O$ bit_count_reg[1]~11 $end
$var wire 1 P$ bit_count_reg[2]~12_combout $end
$var wire 1 Q$ bit_count_reg[2]~13 $end
$var wire 1 R$ bit_count_reg[3]~14_combout $end
$var wire 1 S$ bit_count_reg[3]~15 $end
$var wire 1 T$ bit_count_reg[4]~16_combout $end
$var wire 1 U$ bit_count_reg[4]~17 $end
$var wire 1 V$ bit_count_reg[5]~18_combout $end
$var wire 1 W$ bit_count_reg[5]~19 $end
$var wire 1 X$ bit_count_reg[6]~20_combout $end
$var wire 1 Y$ bit_count_reg[6]~21 $end
$var wire 1 Z$ bit_count_reg[7]~22_combout $end
$var wire 1 [$ count [6] $end
$var wire 1 \$ count [5] $end
$var wire 1 ]$ count [4] $end
$var wire 1 ^$ count [3] $end
$var wire 1 _$ count [2] $end
$var wire 1 `$ count [1] $end
$var wire 1 a$ count [0] $end
$var wire 1 b$ bit_count_reg [7] $end
$var wire 1 c$ bit_count_reg [6] $end
$var wire 1 d$ bit_count_reg [5] $end
$var wire 1 e$ bit_count_reg [4] $end
$var wire 1 f$ bit_count_reg [3] $end
$var wire 1 g$ bit_count_reg [2] $end
$var wire 1 h$ bit_count_reg [1] $end
$var wire 1 i$ bit_count_reg [0] $end
$var wire 1 j$ crc_reg [14] $end
$var wire 1 k$ crc_reg [13] $end
$var wire 1 l$ crc_reg [12] $end
$var wire 1 m$ crc_reg [11] $end
$var wire 1 n$ crc_reg [10] $end
$var wire 1 o$ crc_reg [9] $end
$var wire 1 p$ crc_reg [8] $end
$var wire 1 q$ crc_reg [7] $end
$var wire 1 r$ crc_reg [6] $end
$var wire 1 s$ crc_reg [5] $end
$var wire 1 t$ crc_reg [4] $end
$var wire 1 u$ crc_reg [3] $end
$var wire 1 v$ crc_reg [2] $end
$var wire 1 w$ crc_reg [1] $end
$var wire 1 x$ crc_reg [0] $end
$var wire 1 y$ baud_rate_gen|count [9] $end
$var wire 1 z$ baud_rate_gen|count [8] $end
$var wire 1 {$ baud_rate_gen|count [7] $end
$var wire 1 |$ baud_rate_gen|count [6] $end
$var wire 1 }$ baud_rate_gen|count [5] $end
$var wire 1 ~$ baud_rate_gen|count [4] $end
$var wire 1 !% baud_rate_gen|count [3] $end
$var wire 1 "% baud_rate_gen|count [2] $end
$var wire 1 #% baud_rate_gen|count [1] $end
$var wire 1 $% baud_rate_gen|count [0] $end
$var wire 1 %% bit_pol_count [2] $end
$var wire 1 &% bit_pol_count [1] $end
$var wire 1 '% bit_pol_count [0] $end
$upscope $end
$upscope $end
$enddefinitions $end
#0
$dumpvars
bx !
bx "
0#
x$
bx %
bx &
1'
x(
bx )
01
00
0/
0.
0-
0,
0+
0*
02
0:
09
08
07
06
05
04
03
0;
1?
0>
0=
0<
0B
0A
0@
0J
0I
0H
0G
0F
0E
0D
0C
0K
0L
0M
1N
0O
1P
xQ
1R
1S
1T
xU
xV
xW
xX
xY
xZ
x[
x\
x]
x^
x_
x`
xa
xb
xc
xd
xe
xf
xg
xh
xi
xj
xk
xl
xm
xn
xo
xp
xq
xr
xs
xt
xu
xv
xw
xx
xy
xz
x{
x|
x}
x~
x!!
x"!
x#!
x$!
x%!
x&!
x'!
x(!
x)!
x*!
x+!
x,!
x-!
x.!
x/!
x0!
x1!
x2!
x3!
x4!
x5!
x6!
x7!
x8!
x9!
x:!
x;!
x<!
x=!
x>!
x?!
x@!
xA!
xB!
xC!
xD!
xE!
xF!
xG!
xH!
xI!
xJ!
0K!
1L!
0M!
0N!
0O!
0P!
0Q!
0R!
0S!
0T!
0U!
0V!
0W!
0X!
0Y!
0Z!
0[!
0\!
0]!
0^!
0_!
0`!
0a!
0b!
0c!
0d!
0e!
0f!
0g!
0h!
0i!
1j!
0k!
0l!
0m!
0n!
0o!
0p!
1q!
1r!
0s!
0t!
1u!
0v!
0w!
0x!
1y!
0z!
0{!
0|!
1}!
0~!
0!"
0""
0#"
1$"
0%"
0&"
0'"
0("
1)"
1*"
1+"
0,"
0-"
1."
0/"
00"
01"
02"
13"
04"
15"
06"
17"
18"
09"
0:"
0;"
1<"
1="
0>"
1?"
0@"
0A"
0B"
0C"
1D"
0E"
0F"
0G"
1H"
0I"
0J"
0K"
1L"
0M"
0N"
0O"
1P"
0Q"
0R"
0S"
0T"
0U"
0V"
0W"
0X"
0Y"
1Z"
0["
0\"
0]"
0^"
0_"
0`"
0a"
0b"
0c"
0d"
0e"
1f"
1g"
0h"
0i"
0j"
0k"
0l"
0m"
0n"
1o"
0p"
0q"
0r"
0s"
0t"
1u"
0v"
0w"
0x"
0y"
0z"
1{"
0|"
0}"
0~"
0!#
0"#
0##
1$#
0%#
0&#
0'#
0(#
0)#
0*#
0+#
1,#
0-#
0.#
0/#
00#
01#
02#
13#
04#
05#
06#
07#
08#
19#
0:#
0;#
0<#
0=#
0>#
0?#
1@#
0A#
0B#
0C#
0D#
0E#
0F#
0G#
0H#
0I#
0J#
0K#
0L#
0M#
1N#
1O#
0P#
0Q#
0R#
0S#
0T#
1U#
0V#
0W#
0X#
0Y#
0Z#
0[#
0\#
0]#
1^#
1_#
1`#
1a#
0b#
1c#
0d#
0e#
0f#
0g#
0h#
0i#
0j#
1k#
0l#
1m#
0n#
1o#
0p#
0q#
0r#
0s#
1t#
0u#
1v#
0w#
0x#
0y#
0z#
0{#
0|#
0}#
0~#
0!$
1"$
0#$
1$$
0%$
1&$
1'$
1($
1)$
1*$
1+$
0,$
0-$
0.$
0/$
00$
01$
02$
03$
04$
05$
06$
07$
08$
09$
1:$
1;$
0<$
0=$
0>$
1?$
1@$
1A$
1B$
1C$
0D$
0E$
0F$
0G$
1H$
0I$
0J$
1K$
1L$
0M$
0N$
1O$
0P$
0Q$
0R$
1S$
0T$
0U$
0V$
1W$
0X$
0Y$
0Z$
0a$
0`$
0_$
0^$
0]$
0\$
0[$
0i$
0h$
0g$
0f$
0e$
0d$
0c$
0b$
0x$
0w$
0v$
0u$
0t$
0s$
0r$
0q$
0p$
0o$
0n$
0m$
0l$
0k$
0j$
0$%
0#%
0"%
0!%
0~$
0}$
0|$
0{$
0z$
0y$
0'%
0&%
0%%
$end
#250
1#
1p!
#500
0#
0p!
#750
1#
1p!
#1000
0#
0p!
#1250
1#
1p!
#1500
0#
0p!
#1750
1#
1p!
#2000
0#
0p!
#2250
1#
1p!
#2500
0#
0p!
#2750
1#
1p!
#3000
0#
0p!
#3250
1#
1p!
#3500
0#
0p!
#3750
1#
1p!
#4000
0#
0p!
#4250
1#
1p!
#4500
0#
0p!
#4750
1#
1p!
#5000
0#
0p!
#5250
1#
1p!
#5500
0#
0p!
#5750
1#
1p!
#6000
0#
0p!
#6250
1#
1p!
#6500
0#
0p!
#6750
1#
1p!
#7000
0#
0p!
#7250
1#
1p!
#7500
0#
0p!
#7750
1#
1p!
#8000
0#
0p!
#8250
1#
1p!
#8500
0#
0p!
#8750
1#
1p!
#9000
0#
0p!
#9250
1#
1p!
#9500
0#
0p!
#9750
1#
1p!
#10000
0#
0p!
#10250
1#
1p!
#10500
0#
0p!
#10750
1#
1p!
#11000
0#
0p!
#11250
1#
1p!
#11500
0#
0p!
#11750
1#
1p!
#12000
0#
0p!
#12250
1#
1p!
#12500
0#
0p!
#12750
1#
1p!
#13000
0#
0p!
#13250
1#
1p!
#13500
0#
0p!
#13750
1#
1p!
#14000
0#
0p!
#14250
1#
1p!
#14500
0#
0p!
#14750
1#
1p!
#15000
0#
0p!
#15250
1#
1p!
#15500
0#
0p!
#15750
1#
1p!
#16000
0#
0p!
#16250
1#
1p!
#16500
0#
0p!
#16750
1#
1p!
#17000
0#
0p!
#17250
1#
1p!
#17500
0#
0p!
#17750
1#
1p!
#18000
0#
0p!
#18250
1#
1p!
#18500
0#
0p!
#18750
1#
1p!
#19000
0#
0p!
#19250
1#
1p!
#19500
0#
0p!
#19750
1#
1p!
#20000
0'
0#
0q!
0p!
0)"
#20250
1#
1p!
1$%
10"
1X!
1s!
0c#
10#
1h"
1A
0r!
1t!
#20500
0#
0p!
#20750
1#
1p!
0$%
1#%
0s!
0u!
1r!
0t!
1u!
1t!
1v!
0v!
#21000
0#
0p!
#21250
1#
1p!
1$%
1s!
0r!
0u!
0t!
1v!
#21500
0#
0p!
#21750
1#
1p!
0$%
1"%
0#%
0*"
0s!
1w!
1u!
1r!
0v!
1t!
0+"
1)"
0w!
0t!
1x!
1v!
1,"
0x!
#22000
0#
0p!
#22250
1#
1p!
0"%
1-"
1V!
1*"
1K
0v!
0,"
1+"
0)"
1,"
1n#
1l#
0t#
0o#
0K$
0A$
1-#
0u"
1/"
1S"
1Q"
0m#
11"
1a!
1_!
0v#
0f"
0C$
1b#
1.#
1%$
1M"
14"
1E
1C
1Z!
0$#
0g"
1c#
1/#
1["
1O"
1J
0@$
0L!
1(#
0-#
0h"
00#
1?#
12#
0P"
05"
0N
0+$
0*$
0)$
0($
0'$
0&$
0$$
01"
0b#
0.#
0U#
0@#
0O#
09#
03#
0c#
0/#
10#
#22500
0#
0p!
#22750
1#
1p!
1$%
1s!
0r!
1t!
#23000
0#
0p!
#23250
1#
1p!
0$%
1#%
0s!
0u!
1r!
0t!
1u!
1t!
1v!
0v!
#23500
0#
0p!
#23750
1#
1p!
1$%
1s!
0r!
0u!
0t!
1v!
#24000
0#
0p!
#24250
1#
1p!
0$%
1"%
0#%
0*"
0s!
1w!
1u!
1r!
0v!
1t!
0+"
1)"
0w!
0t!
1x!
1v!
0,"
0x!
#24500
0#
0p!
