simulation/qsim/CAN.msim.vcd
$comment
	File created using the following command:
		vcd file CAN.msim.vcd -direction
$end
$date
	Thu Oct 08 15:04:16 2020
$end
$version
	ModelSim Version 2020.1
$end
$timescale
	1ps
$end

$scope module can_top_vlg_vec_tst $end
$var reg 1 ! clk_i $end
$var reg 1 " rst_i $end
$var reg 1 # rx_i $end
$var wire 1 $ bit_stuffed $end
$var wire 1 % rx_busy $end
$var wire 1 & test_bit_count [7] $end
$var wire 1 ' test_bit_count [6] $end
$var wire 1 ( test_bit_count [5] $end
$var wire 1 ) test_bit_count [4] $end
$var wire 1 * test_bit_count [3] $end
$var wire 1 + test_bit_count [2] $end
$var wire 1 , test_bit_count [1] $end
$var wire 1 - test_bit_count [0] $end
$var wire 1 . test_bit_pol_count [3] $end
$var wire 1 / test_bit_pol_count [2] $end
$var wire 1 0 test_bit_pol_count [1] $end
$var wire 1 1 test_bit_pol_count [0] $end
$var wire 1 2 test_can_state [2] $end
$var wire 1 3 test_can_state [1] $end
$var wire 1 4 test_can_state [0] $end
$var wire 1 5 test_can_tx_state [7] $end
$var wire 1 6 test_can_tx_state [6] $end
$var wire 1 7 test_can_tx_state [5] $end
$var wire 1 8 test_can_tx_state [4] $end
$var wire 1 9 test_can_tx_state [3] $end
$var wire 1 : test_can_tx_state [2] $end
$var wire 1 ; test_can_tx_state [1] $end
$var wire 1 < test_can_tx_state [0] $end
$var wire 1 = test_clk_can $end
$var wire 1 > test_last_bit $end
$var wire 1 ? tx_busy $end
$var wire 1 @ tx_o $end

$scope module i1 $end
$var wire 1 A gnd $end
$var wire 1 B vcc $end
$var wire 1 C unknown $end
$var tri1 1 D devclrn $end
$var tri1 1 E devpor $end
$var tri1 1 F devoe $end
$var wire 1 G rx_i~input_o $end
$var wire 1 H rx_busy~output_o $end
$var wire 1 I tx_o~output_o $end
$var wire 1 J tx_busy~output_o $end
$var wire 1 K test_clk_can~output_o $end
$var wire 1 L test_can_state[0]~output_o $end
$var wire 1 M test_can_state[1]~output_o $end
$var wire 1 N test_can_state[2]~output_o $end
$var wire 1 O test_can_tx_state[0]~output_o $end
$var wire 1 P test_can_tx_state[1]~output_o $end
$var wire 1 Q test_can_tx_state[2]~output_o $end
$var wire 1 R test_can_tx_state[3]~output_o $end
$var wire 1 S test_can_tx_state[4]~output_o $end
$var wire 1 T test_can_tx_state[5]~output_o $end
$var wire 1 U test_can_tx_state[6]~output_o $end
$var wire 1 V test_can_tx_state[7]~output_o $end
$var wire 1 W test_bit_count[0]~output_o $end
$var wire 1 X test_bit_count[1]~output_o $end
$var wire 1 Y test_bit_count[2]~output_o $end
$var wire 1 Z test_bit_count[3]~output_o $end
$var wire 1 [ test_bit_count[4]~output_o $end
$var wire 1 \ test_bit_count[5]~output_o $end
$var wire 1 ] test_bit_count[6]~output_o $end
$var wire 1 ^ test_bit_count[7]~output_o $end
$var wire 1 _ test_bit_pol_count[0]~output_o $end
$var wire 1 ` test_bit_pol_count[1]~output_o $end
$var wire 1 a test_bit_pol_count[2]~output_o $end
$var wire 1 b test_bit_pol_count[3]~output_o $end
$var wire 1 c bit_stuffed~output_o $end
$var wire 1 d test_last_bit~output_o $end
$var wire 1 e clk_i~input_o $end
$var wire 1 f rst_i~input_o $end
$var wire 1 g baud_rate_gen|count[0]~10_combout $end
$var wire 1 h baud_rate_gen|count[0]~11 $end
$var wire 1 i baud_rate_gen|count[1]~13_combout $end
$var wire 1 j baud_rate_gen|count[1]~14 $end
$var wire 1 k baud_rate_gen|count[2]~15_combout $end
$var wire 1 l baud_rate_gen|count[2]~16 $end
$var wire 1 m baud_rate_gen|count[3]~17_combout $end
$var wire 1 n baud_rate_gen|count[3]~18 $end
$var wire 1 o baud_rate_gen|count[4]~19_combout $end
$var wire 1 p baud_rate_gen|count[4]~20 $end
$var wire 1 q baud_rate_gen|count[5]~21_combout $end
$var wire 1 r baud_rate_gen|count[5]~22 $end
$var wire 1 s baud_rate_gen|count[6]~23_combout $end
$var wire 1 t baud_rate_gen|count[6]~24 $end
$var wire 1 u baud_rate_gen|count[7]~25_combout $end
$var wire 1 v baud_rate_gen|Equal0~1_combout $end
$var wire 1 w baud_rate_gen|count[7]~26 $end
$var wire 1 x baud_rate_gen|count[8]~27_combout $end
$var wire 1 y baud_rate_gen|count[8]~28 $end
$var wire 1 z baud_rate_gen|count[9]~29_combout $end
$var wire 1 { baud_rate_gen|Equal0~2_combout $end
$var wire 1 | baud_rate_gen|count[8]~12_combout $end
$var wire 1 } baud_rate_gen|Equal0~0_combout $end
$var wire 1 ~ baud_rate_gen|baud_clk_o_reg~0_combout $end
$var wire 1 !! baud_rate_gen|baud_clk_o_reg~1_combout $end
$var wire 1 "! baud_rate_gen|baud_clk_o_reg~q $end
$var wire 1 #! can_tx_instance|last_bit~q $end
$var wire 1 $! can_tx_instance|always0~1_combout $end
$var wire 1 %! can_tx_instance|bit_pol_count~1_combout $end
$var wire 1 &! can_tx_instance|WideOr5~2_combout $end
$var wire 1 '! can_tx_instance|always0~0_combout $end
$var wire 1 (! can_tx_instance|bit_pol_count~0_combout $end
$var wire 1 )! can_tx_instance|bit_pol_count~2_combout $end
$var wire 1 *! can_tx_instance|TX_STATE~36_combout $end
$var wire 1 +! can_tx_instance|TX_STATE~37_combout $end
$var wire 1 ,! can_tx_instance|TX_STATE.TX_BIT_STUFF~q $end
$var wire 1 -! can_tx_instance|count[0]~7_combout $end
$var wire 1 .! can_tx_instance|count[2]~16 $end
$var wire 1 /! can_tx_instance|count[3]~17_combout $end
$var wire 1 0! can_tx_instance|Equal0~1_combout $end
$var wire 1 1! can_tx_instance|TX_STATE~64_combout $end
$var wire 1 2! can_tx_instance|Equal4~0_combout $end
$var wire 1 3! can_tx_instance|Equal4~1_combout $end
$var wire 1 4! can_tx_instance|Equal0~2_combout $end
$var wire 1 5! can_tx_instance|Equal3~0_combout $end
$var wire 1 6! can_tx_instance|Selector36~1_combout $end
$var wire 1 7! can_tx_instance|Equal6~0_combout $end
$var wire 1 8! can_tx_instance|count[5]~22 $end
$var wire 1 9! can_tx_instance|count[6]~23_combout $end
$var wire 1 :! can_tx_instance|Equal6~1_combout $end
$var wire 1 ;! can_tx_instance|Selector38~3_combout $end
$var wire 1 <! can_tx_instance|Selector38~4_combout $end
$var wire 1 =! can_tx_instance|Selector34~2_combout $end
$var wire 1 >! can_tx_instance|Selector38~6_combout $end
$var wire 1 ?! can_tx_instance|Selector38~5_combout $end
$var wire 1 @! can_tx_instance|NEXT_TX_STATE.TX_ATRIBUTE_RESERVED~q $end
$var wire 1 A! can_tx_instance|TX_STATE~62_combout $end
$var wire 1 B! can_tx_instance|TX_STATE~63_combout $end
$var wire 1 C! can_tx_instance|TX_STATE.TX_ATRIBUTE_RESERVED~q $end
$var wire 1 D! can_tx_instance|Selector39~0_combout $end
$var wire 1 E! can_tx_instance|Selector39~1_combout $end
$var wire 1 F! can_tx_instance|Selector39~2_combout $end
$var wire 1 G! can_tx_instance|NEXT_TX_STATE.TX_EXPAND_COUNT~q $end
$var wire 1 H! can_tx_instance|TX_STATE~75_combout $end
$var wire 1 I! can_tx_instance|TX_STATE~76_combout $end
$var wire 1 J! can_tx_instance|TX_STATE.TX_EXPAND_COUNT~q $end
$var wire 1 K! can_tx_instance|Selector42~0_combout $end
$var wire 1 L! can_tx_instance|Selector40~0_combout $end
$var wire 1 M! can_tx_instance|Selector40~1_combout $end
$var wire 1 N! can_tx_instance|NEXT_TX_STATE.TX_CMD_DATA_SIGN~q $end
$var wire 1 O! can_tx_instance|TX_STATE~73_combout $end
$var wire 1 P! can_tx_instance|TX_STATE~74_combout $end
$var wire 1 Q! can_tx_instance|TX_STATE.TX_CMD_DATA_SIGN~q $end
$var wire 1 R! can_tx_instance|TX_STATE~72_combout $end
$var wire 1 S! can_tx_instance|TX_STATE~53_combout $end
$var wire 1 T! can_tx_instance|WideOr15~combout $end
$var wire 1 U! can_tx_instance|Selector29~1_combout $end
$var wire 1 V! can_tx_instance|Selector38~2_combout $end
$var wire 1 W! can_tx_instance|Selector29~2_combout $end
$var wire 1 X! can_tx_instance|Selector30~0_combout $end
$var wire 1 Y! can_tx_instance|NEXT_TX_STATE.TX_IDE~q $end
$var wire 1 Z! can_tx_instance|TX_STATE~71_combout $end
$var wire 1 [! can_tx_instance|TX_STATE.TX_IDE~q $end
$var wire 1 \! can_tx_instance|Selector36~0_combout $end
$var wire 1 ]! can_tx_instance|Selector36~2_combout $end
$var wire 1 ^! can_tx_instance|NEXT_TX_STATE.TX_ADDRESS_REMOTE~q $end
$var wire 1 _! can_tx_instance|TX_STATE~65_combout $end
$var wire 1 `! can_tx_instance|TX_STATE~66_combout $end
$var wire 1 a! can_tx_instance|TX_STATE.TX_ADDRESS_REMOTE~q $end
$var wire 1 b! can_tx_instance|Selector28~0_combout $end
$var wire 1 c! can_tx_instance|test_tx_state~2_combout $end
$var wire 1 d! can_tx_instance|Equal2~0_combout $end
$var wire 1 e! can_tx_instance|TX_STATE~50_combout $end
$var wire 1 f! can_tx_instance|TX_STATE~51_combout $end
$var wire 1 g! can_tx_instance|TX_STATE~52_combout $end
$var wire 1 h! can_tx_instance|WideOr5~4_combout $end
$var wire 1 i! can_tx_instance|TX_STATE~54_combout $end
$var wire 1 j! can_tx_instance|TX_STATE~55_combout $end
$var wire 1 k! can_tx_instance|Selector28~3_combout $end
$var wire 1 l! can_tx_instance|TX_STATE~58_combout $end
$var wire 1 m! can_tx_instance|Selector28~4_combout $end
$var wire 1 n! can_tx_instance|Selector37~0_combout $end
$var wire 1 o! can_tx_instance|NEXT_TX_STATE.TX_HANDSHAKING_P~q $end
$var wire 1 p! can_tx_instance|TX_STATE~56_combout $end
$var wire 1 q! can_tx_instance|TX_STATE~59_combout $end
$var wire 1 r! can_tx_instance|TX_STATE~60_combout $end
$var wire 1 s! can_tx_instance|TX_STATE~61_combout $end
$var wire 1 t! can_tx_instance|TX_STATE.TX_HANDSHAKING_P~q $end
$var wire 1 u! can_tx_instance|Selector34~5_combout $end
$var wire 1 v! can_tx_instance|Selector34~3_combout $end
$var wire 1 w! can_tx_instance|Selector34~4_combout $end
$var wire 1 x! can_tx_instance|NEXT_TX_STATE.TX_MESSAGE_TYPE~q $end
$var wire 1 y! can_tx_instance|TX_STATE~49_combout $end
$var wire 1 z! can_tx_instance|TX_STATE.TX_MESSAGE_TYPE~q $end
$var wire 1 {! can_tx_instance|Selector35~0_combout $end
$var wire 1 |! can_tx_instance|NEXT_TX_STATE.TX_ADDRESS_LOCAL~q $end
$var wire 1 }! can_tx_instance|TX_STATE~67_combout $end
$var wire 1 ~! can_tx_instance|TX_STATE~68_combout $end
$var wire 1 !" can_tx_instance|TX_STATE.TX_ADDRESS_LOCAL~q $end
$var wire 1 "" can_tx_instance|Selector29~0_combout $end
$var wire 1 #" can_tx_instance|Selector29~3_combout $end
$var wire 1 $" can_tx_instance|Selector29~4_combout $end
$var wire 1 %" can_tx_instance|NEXT_TX_STATE.TX_SRR~q $end
$var wire 1 &" can_tx_instance|TX_STATE~69_combout $end
$var wire 1 '" can_tx_instance|TX_STATE~70_combout $end
$var wire 1 (" can_tx_instance|TX_STATE.TX_SRR~q $end
$var wire 1 )" can_tx_instance|WideOr5~3_combout $end
$var wire 1 *" can_tx_instance|WideOr6~combout $end
$var wire 1 +" can_tx_instance|count[3]~18 $end
$var wire 1 ," can_tx_instance|count[4]~19_combout $end
$var wire 1 -" can_tx_instance|count[4]~20 $end
$var wire 1 ." can_tx_instance|count[5]~21_combout $end
$var wire 1 /" can_tx_instance|Equal0~0_combout $end
$var wire 1 0" can_tx_instance|Equal0~3_combout $end
$var wire 1 1" can_tx_instance|TX_STATE~43_combout $end
$var wire 1 2" can_tx_instance|count[3]~11_combout $end
$var wire 1 3" can_tx_instance|TX_STATE~40_combout $end
$var wire 1 4" can_tx_instance|TX_STATE~41_combout $end
$var wire 1 5" can_tx_instance|count[3]~12_combout $end
$var wire 1 6" can_tx_instance|count[3]~13_combout $end
$var wire 1 7" can_tx_instance|TX_STATE~38_combout $end
$var wire 1 8" can_tx_instance|count[3]~14_combout $end
$var wire 1 9" can_tx_instance|count[0]~8 $end
$var wire 1 :" can_tx_instance|count[1]~9_combout $end
$var wire 1 ;" can_tx_instance|count[1]~10 $end
$var wire 1 <" can_tx_instance|count[2]~15_combout $end
$var wire 1 =" can_tx_instance|Selector28~1_combout $end
$var wire 1 >" can_tx_instance|Selector31~0_combout $end
$var wire 1 ?" can_tx_instance|NEXT_TX_STATE.TX_RTR~q $end
$var wire 1 @" can_tx_instance|TX_STATE~79_combout $end
$var wire 1 A" can_tx_instance|TX_STATE~80_combout $end
$var wire 1 B" can_tx_instance|TX_STATE.TX_RTR~q $end
$var wire 1 C" can_tx_instance|Selector32~0_combout $end
$var wire 1 D" can_tx_instance|NEXT_TX_STATE.TX_RESERVED~q $end
$var wire 1 E" can_tx_instance|TX_STATE~81_combout $end
$var wire 1 F" can_tx_instance|TX_STATE~82_combout $end
$var wire 1 G" can_tx_instance|TX_STATE.TX_RESERVED~q $end
$var wire 1 H" can_tx_instance|WideOr2~0_combout $end
$var wire 1 I" can_tx_instance|Selector41~0_combout $end
$var wire 1 J" can_tx_instance|Selector41~1_combout $end
$var wire 1 K" can_tx_instance|NEXT_TX_STATE.TX_DLC~q $end
$var wire 1 L" can_tx_instance|TX_STATE~77_combout $end
$var wire 1 M" can_tx_instance|TX_STATE~78_combout $end
$var wire 1 N" can_tx_instance|TX_STATE.TX_DLC~q $end
$var wire 1 O" can_tx_instance|Selector42~1_combout $end
$var wire 1 P" can_tx_instance|Selector42~2_combout $end
$var wire 1 Q" can_tx_instance|NEXT_TX_STATE.TX_DATA~q $end
$var wire 1 R" can_tx_instance|TX_STATE~85_combout $end
$var wire 1 S" can_tx_instance|TX_STATE~86_combout $end
$var wire 1 T" can_tx_instance|TX_STATE.TX_DATA~q $end
$var wire 1 U" can_tx_instance|Selector28~2_combout $end
$var wire 1 V" can_tx_instance|Selector33~2_combout $end
$var wire 1 W" can_tx_instance|NEXT_TX_STATE.TX_CRC~q $end
$var wire 1 X" can_tx_instance|TX_STATE~83_combout $end
$var wire 1 Y" can_tx_instance|TX_STATE~84_combout $end
$var wire 1 Z" can_tx_instance|TX_STATE.TX_CRC~q $end
$var wire 1 [" can_tx_instance|TX_STATE~39_combout $end
$var wire 1 \" can_tx_instance|TX_STATE~42_combout $end
$var wire 1 ]" can_tx_instance|TX_STATE~44_combout $end
$var wire 1 ^" can_tx_instance|TX_STATE~45_combout $end
$var wire 1 _" can_tx_instance|TX_STATE~46_combout $end
$var wire 1 `" can_tx_instance|TX_STATE~47_combout $end
$var wire 1 a" can_tx_instance|TX_STATE~90_combout $end
$var wire 1 b" can_tx_instance|TX_STATE.TX_CRC_DELIMITER~q $end
$var wire 1 c" can_tx_instance|TX_STATE.TX_ACK_SLOT~q $end
$var wire 1 d" can_tx_instance|TX_STATE.TX_ACK_DELIMITER~q $end
$var wire 1 e" can_tx_instance|TX_STATE~88_combout $end
$var wire 1 f" can_tx_instance|TX_STATE~89_combout $end
$var wire 1 g" can_tx_instance|TX_STATE.TX_END_OF_FRAME~q $end
$var wire 1 h" can_tx_instance|TX_STATE~57_combout $end
$var wire 1 i" can_tx_instance|NEXT_TX_STATE.TX_IDLE~2_combout $end
$var wire 1 j" can_tx_instance|NEXT_TX_STATE.TX_IDLE~q $end
$var wire 1 k" can_tx_instance|TX_STATE~87_combout $end
$var wire 1 l" can_tx_instance|TX_STATE.TX_IDLE~q $end
$var wire 1 m" can_tx_instance|TX_STATE~48_combout $end
$var wire 1 n" can_tx_instance|TX_STATE.TX_START_OF_FRAME~q $end
$var wire 1 o" can_tx_instance|tx_o~0_combout $end
$var wire 1 p" can_tx_instance|tx_o~1_combout $end
$var wire 1 q" can_tx_instance|tx_o~2_combout $end
$var wire 1 r" can_tx_instance|tx_o~3_combout $end
$var wire 1 s" can_tx_instance|tx_o~4_combout $end
$var wire 1 t" can_tx_instance|tx_o~5_combout $end
$var wire 1 u" can_tx_instance|tx_o~6_combout $end
$var wire 1 v" can_tx_instance|tx_o~7_combout $end
$var wire 1 w" can_tx_instance|tx_o~8_combout $end
$var wire 1 x" can_tx_instance|tx_o~9_combout $end
$var wire 1 y" can_tx_instance|WideOr0~0_combout $end
$var wire 1 z" can_tx_instance|tx_o~10_combout $end
$var wire 1 {" can_tx_instance|always1~0_combout $end
$var wire 1 |" can_tx_instance|crc_reg~8_combout $end
$var wire 1 }" can_tx_instance|crc_reg[12]~1_combout $end
$var wire 1 ~" can_tx_instance|crc_reg~12_combout $end
$var wire 1 !# can_tx_instance|crc_reg~5_combout $end
$var wire 1 "# can_tx_instance|crc_reg~9_combout $end
$var wire 1 ## can_tx_instance|crc_reg~13_combout $end
$var wire 1 $# can_tx_instance|crc_reg~2_combout $end
$var wire 1 %# can_tx_instance|crc_reg~14_combout $end
$var wire 1 &# can_tx_instance|crc_reg~3_combout $end
$var wire 1 '# can_tx_instance|crc_reg~6_combout $end
$var wire 1 (# can_tx_instance|crc_reg~10_combout $end
$var wire 1 )# can_tx_instance|crc_reg~7_combout $end
$var wire 1 *# can_tx_instance|crc_reg~11_combout $end
$var wire 1 +# can_tx_instance|crc_reg~4_combout $end
$var wire 1 ,# can_tx_instance|crc_reg~15_combout $end
$var wire 1 -# can_tx_instance|crc_reg~0_combout $end
$var wire 1 .# can_tx_instance|Mux6~0_combout $end
$var wire 1 /# can_tx_instance|Mux6~1_combout $end
$var wire 1 0# can_tx_instance|Mux6~2_combout $end
$var wire 1 1# can_tx_instance|Mux6~3_combout $end
$var wire 1 2# can_tx_instance|Mux6~4_combout $end
$var wire 1 3# can_tx_instance|Mux6~5_combout $end
$var wire 1 4# can_tx_instance|Mux6~6_combout $end
$var wire 1 5# can_tx_instance|Mux6~7_combout $end
$var wire 1 6# can_tx_instance|Mux6~8_combout $end
$var wire 1 7# can_tx_instance|Mux6~9_combout $end
$var wire 1 8# can_tx_instance|tx_o~11_combout $end
$var wire 1 9# can_tx_instance|tx_o~12_combout $end
$var wire 1 :# can_tx_instance|bit_stuff_bit~0_combout $end
$var wire 1 ;# can_tx_instance|bit_stuff_bit~q $end
$var wire 1 <# can_tx_instance|tx_o~13_combout $end
$var wire 1 =# can_tx_instance|tx_o~14_combout $end
$var wire 1 ># can_tx_instance|tx_o~15_combout $end
$var wire 1 ?# can_tx_instance|tx_o~16_combout $end
$var wire 1 @# can_tx_instance|Mux5~0_combout $end
$var wire 1 A# can_tx_instance|Mux5~1_combout $end
$var wire 1 B# can_tx_instance|Mux5~2_combout $end
$var wire 1 C# can_tx_instance|Mux5~3_combout $end
$var wire 1 D# can_tx_instance|tx_o~17_combout $end
$var wire 1 E# can_tx_instance|tx_o~18_combout $end
$var wire 1 F# can_tx_instance|tx_o~19_combout $end
$var wire 1 G# can_tx_instance|tx_o~20_combout $end
$var wire 1 H# can_tx_instance|tx_o~21_combout $end
$var wire 1 I# CAN_STATE.CAN_TX~q $end
$var wire 1 J# can_tx_instance|WideOr4~0_combout $end
$var wire 1 K# can_tx_instance|WideOr3~0_combout $end
$var wire 1 L# can_tx_instance|WideOr4~1_combout $end
$var wire 1 M# can_tx_instance|WideOr3~1_combout $end
$var wire 1 N# can_tx_instance|WideOr3~2_combout $end
$var wire 1 O# can_tx_instance|WideOr2~1_combout $end
$var wire 1 P# can_tx_instance|WideOr2~combout $end
$var wire 1 Q# can_tx_instance|WideOr1~0_combout $end
$var wire 1 R# can_tx_instance|WideOr1~combout $end
$var wire 1 S# can_tx_instance|WideOr0~1_combout $end
$var wire 1 T# can_tx_instance|bit_count_reg[0]~8_combout $end
$var wire 1 U# can_tx_instance|bit_count_reg[0]~9 $end
$var wire 1 V# can_tx_instance|bit_count_reg[1]~10_combout $end
$var wire 1 W# can_tx_instance|bit_count_reg[1]~11 $end
$var wire 1 X# can_tx_instance|bit_count_reg[2]~12_combout $end
$var wire 1 Y# can_tx_instance|bit_count_reg[2]~13 $end
$var wire 1 Z# can_tx_instance|bit_count_reg[3]~14_combout $end
$var wire 1 [# can_tx_instance|bit_count_reg[3]~15 $end
$var wire 1 \# can_tx_instance|bit_count_reg[4]~16_combout $end
$var wire 1 ]# can_tx_instance|bit_count_reg[4]~17 $end
$var wire 1 ^# can_tx_instance|bit_count_reg[5]~18_combout $end
$var wire 1 _# can_tx_instance|bit_count_reg[5]~19 $end
$var wire 1 `# can_tx_instance|bit_count_reg[6]~20_combout $end
$var wire 1 a# can_tx_instance|bit_count_reg[6]~21 $end
$var wire 1 b# can_tx_instance|bit_count_reg[7]~22_combout $end
$var wire 1 c# can_tx_instance|count [6] $end
$var wire 1 d# can_tx_instance|count [5] $end
$var wire 1 e# can_tx_instance|count [4] $end
$var wire 1 f# can_tx_instance|count [3] $end
$var wire 1 g# can_tx_instance|count [2] $end
$var wire 1 h# can_tx_instance|count [1] $end
$var wire 1 i# can_tx_instance|count [0] $end
$var wire 1 j# can_tx_instance|bit_count_reg [7] $end
$var wire 1 k# can_tx_instance|bit_count_reg [6] $end
$var wire 1 l# can_tx_instance|bit_count_reg [5] $end
$var wire 1 m# can_tx_instance|bit_count_reg [4] $end
$var wire 1 n# can_tx_instance|bit_count_reg [3] $end
$var wire 1 o# can_tx_instance|bit_count_reg [2] $end
$var wire 1 p# can_tx_instance|bit_count_reg [1] $end
$var wire 1 q# can_tx_instance|bit_count_reg [0] $end
$var wire 1 r# can_tx_instance|crc_reg [14] $end
$var wire 1 s# can_tx_instance|crc_reg [13] $end
$var wire 1 t# can_tx_instance|crc_reg [12] $end
$var wire 1 u# can_tx_instance|crc_reg [11] $end
$var wire 1 v# can_tx_instance|crc_reg [10] $end
$var wire 1 w# can_tx_instance|crc_reg [9] $end
$var wire 1 x# can_tx_instance|crc_reg [8] $end
$var wire 1 y# can_tx_instance|crc_reg [7] $end
$var wire 1 z# can_tx_instance|crc_reg [6] $end
$var wire 1 {# can_tx_instance|crc_reg [5] $end
$var wire 1 |# can_tx_instance|crc_reg [4] $end
$var wire 1 }# can_tx_instance|crc_reg [3] $end
$var wire 1 ~# can_tx_instance|crc_reg [2] $end
$var wire 1 !$ can_tx_instance|crc_reg [1] $end
$var wire 1 "$ can_tx_instance|crc_reg [0] $end
$var wire 1 #$ baud_rate_gen|count [9] $end
$var wire 1 $$ baud_rate_gen|count [8] $end
$var wire 1 %$ baud_rate_gen|count [7] $end
$var wire 1 &$ baud_rate_gen|count [6] $end
$var wire 1 '$ baud_rate_gen|count [5] $end
$var wire 1 ($ baud_rate_gen|count [4] $end
$var wire 1 )$ baud_rate_gen|count [3] $end
$var wire 1 *$ baud_rate_gen|count [2] $end
$var wire 1 +$ baud_rate_gen|count [1] $end
$var wire 1 ,$ baud_rate_gen|count [0] $end
$var wire 1 -$ can_tx_instance|bit_pol_count [2] $end
$var wire 1 .$ can_tx_instance|bit_pol_count [1] $end
$var wire 1 /$ can_tx_instance|bit_pol_count [0] $end
$upscope $end
$upscope $end
$enddefinitions $end
#0
$dumpvars
0!
1"
x#
0$
0%
0-
0,
0+
0*
0)
0(
0'
0&
11
00
0/
0.
04
03
02
0<
0;
0:
09
08
07
06
05
0=
0>
0?
1@
0A
1B
xC
1D
1E
1F
xG
0H
1I
0J
0K
0L
0M
0N
0O
0P
0Q
0R
0S
0T
0U
0V
0W
0X
0Y
0Z
0[
0\
0]
0^
1_
0`
0a
0b
0c
0d
0e
1f
1g
0h
0i
1j
0k
0l
0m
1n
0o
0p
0q
1r
0s
0t
0u
0v
1w
0x
0y
0z
0{
1|
1}
1~
0!!
0"!
0#!
1$!
1%!
1&!
0'!
1(!
0)!
0*!
0+!
0,!
1-!
0.!
0/!
00!
01!
02!
03!
04!
05!
06!
07!
18!
09!
0:!
0;!
0<!
0=!
0>!
0?!
0@!
0A!
0B!
0C!
0D!
0E!
0F!
0G!
0H!
0I!
0J!
0K!
1L!
0M!
0N!
0O!
0P!
0Q!
0R!
1S!
1T!
0U!
1V!
0W!
0X!
0Y!
0Z!
0[!
1\!
0]!
0^!
0_!
0`!
0a!
0b!
0c!
0d!
0e!
0f!
0g!
1h!
1i!
0j!
0k!
1l!
0m!
0n!
0o!
0p!
0q!
0r!
0s!
0t!
0u!
1v!
0w!
0x!
0y!
0z!
0{!
0|!
0}!
0~!
0!"
1""
0#"
0$"
0%"
0&"
0'"
0("
1)"
1*"
1+"
0,"
0-"
0."
1/"
00"
01"
02"
03"
04"
05"
06"
07"
18"
09"
0:"
1;"
0<"
0="
0>"
0?"
0@"
0A"
0B"
0C"
0D"
0E"
0F"
0G"
1H"
1I"
0J"
0K"
0L"
0M"
0N"
1O"
0P"
0Q"
0R"
0S"
0T"
0U"
0V"
0W"
0X"
0Y"
0Z"
0["
1\"
1]"
1^"
0_"
0`"
0a"
0b"
0c"
0d"
0e"
0f"
0g"
0h"
0i"
0j"
1k"
0l"
1m"
0n"
1o"
0p"
0q"
0r"
0s"
1t"
0u"
0v"
0w"
0x"
1y"
0z"
1{"
0|"
1}"
0~"
0!#
0"#
0##
0$#
0%#
0&#
0'#
0(#
0)#
0*#
0+#
0,#
0-#
0.#
0/#
00#
01#
02#
03#
04#
05#
06#
07#
08#
09#
0:#
0;#
1<#
1=#
1>#
0?#
0@#
0A#
0B#
0C#
0D#
0E#
1F#
1G#
1H#
0I#
1J#
1K#
1L#
0M#
0N#
0O#
0P#
0Q#
0R#
0S#
1T#
0U#
0V#
1W#
0X#
0Y#
0Z#
1[#
0\#
0]#
0^#
1_#
0`#
0a#
0b#
0i#
0h#
0g#
0f#
0e#
0d#
0c#
0q#
0p#
0o#
0n#
0m#
0l#
0k#
0j#
0"$
0!$
0~#
0}#
0|#
0{#
0z#
0y#
0x#
0w#
0v#
0u#
0t#
0s#
0r#
0,$
0+$
0*$
0)$
0($
0'$
0&$
0%$
0$$
0#$
0/$
0.$
0-$
$end
#250
1!
1e
#500
0!
0e
#750
1!
1e
#1000
0!
0e
#1250
1!
1e
#1500
0!
0e
#1750
1!
1e
#2000
0!
0e
#2250
1!
1e
#2500
0!
0e
#2750
1!
1e
#3000
0!
0e
#3250
1!
1e
#3500
0!
0e
#3750
1!
1e
#4000
0!
0e
#4250
1!
1e
#4500
0!
0e
#4750
1!
1e
#5000
0!
0e
#5250
1!
1e
#5500
0!
0e
#5750
1!
1e
#6000
0!
0e
#6250
1!
1e
#6500
0!
0e
#6750
1!
1e
#7000
0!
0e
#7250
1!
1e
#7500
0!
0e
#7750
1!
1e
#8000
0!
0e
#8250
1!
1e
#8500
0!
0e
#8750
1!
1e
#9000
0!
0e
#9250
1!
1e
#9500
0!
0e
#9750
1!
1e
#10000
0!
0e
#10250
1!
1e
#10500
0!
0e
#10750
1!
1e
#11000
0!
0e
#11250
1!
1e
#11500
0!
0e
#11750
1!
1e
#12000
0!
0e
#12250
1!
1e
#12500
0!
0e
#12750
1!
1e
#13000
0!
0e
#13250
1!
1e
#13500
0!
0e
#13750
1!
1e
#14000
0!
0e
#14250
1!
1e
#14500
0!
0e
#14750
1!
1e
#15000
0!
0e
#15250
1!
1e
#15500
0!
0e
#15750
1!
1e
#16000
0!
0e
#16250
1!
1e
#16500
0!
0e
#16750
1!
1e
#17000
0!
0e
#17250
1!
1e
#17500
0!
0e
#17750
1!
1e
#18000
0!
0e
#18250
1!
1e
#18500
0!
0e
#18750
1!
1e
#19000
0!
0e
#19250
1!
1e
#19500
0!
0e
#19750
1!
1e
#20000
0"
0!
0f
0e
0|
#20250
1!
1e
1,$
1I#
1M
1h
13
0g
1i
#20500
0!
0e
#20750
1!
1e
0,$
1+$
0h
0j
1g
0i
1j
1i
1k
0k
#21000
0!
0e
#21250
1!
1e
1,$
1h
0g
0j
0i
1k
#21500
0!
0e
#21750
1!
1e
0,$
1*$
0+$
0}
0h
1l
1j
1g
0k
1i
0~
1|
0l
0i
1m
1k
1!!
0m
#22000
0!
0e
#22250
1!
1e
0*$
1"!
1K
1}
1=
0k
0!!
1~
0|
1!!
1n"
1l"
0}"
0t"
0o"
0J#
1["
08"
0T!
1'!
1y!
1w!
0m"
1c!
1T
1V
0)"
0L#
1`"
1k!
1U!
1j!
15
17
0H#
0I
1O
0*"
1m!
0h!
1W!
1=!
0$!
1<
0@
0["
1q!
0i!
0v!
1K!
1>!
1i"
0`"
1r!
0O"
0L!
0I"
#22500
0!
0e
#22750
1!
1e
1,$
1h
0g
1i
#23000
0!
0e
#23250
1!
1e
0,$
1+$
0h
0j
1g
0i
1j
1i
1k
0k
#23500
0!
0e
#23750
1!
1e
1,$
1h
0g
0j
0i
1k
#24000
0!
0e
#24250
1!
1e
0,$
1*$
0+$
0}
0h
1l
1j
1g
0k
1i
0~
1|
0l
0i
1m
1k
0!!
0m
#24500
0!
0e
#24750
1!
1e
0*$
0"!
0K
1}
0=
0k
1!!
1~
0|
0!!
#25000
0!
0e
#25250
1!
1e
1,$
1h
0g
1i
#25500
0!
0e
#25750
1!
1e
0,$
1+$
0h
0j
1g
0i
1j
1i
1k
0k
#26000
0!
0e
#26250
1!
1e
1,$
1h
0g
0j
0i
1k
#26500
0!
0e
#26750
1!
1e
0,$
1*$
0+$
0}
0h
1l
1j
1g
0k
1i
0~
1|
0l
0i
1m
1k
1!!
0m
#27000
0!
0e
#27250
1!
1e
0*$
1"!
1K
1}
1=
0k
0!!
1~
0|
1!!
0n"
1j"
1z!
1x!
1/$
1q#
1.$
1`
1W
0_
1}"
0{"
1}!
1U#
01
1-
10
0y!
0w!
1S#
1{!
0(!
0T#
1S
18
1~!
1V#
#27500
0!
0e
#27750
1!
1e
1,$
1h
0g
1i
#28000
0!
0e
#28250
1!
1e
0,$
1+$
0h
0j
1g
0i
1j
1i
1k
0k
